[ {
  "uid" : "97e6d548e0f50c22",
  "name" : "second test",
  "time" : {
    "start" : 1636122920715,
    "stop" : 1636122923242,
    "duration" : 2527
  },
  "status" : "passed",
  "severity" : "normal"
}, {
  "uid" : "2d9f0e9aac4a00ab",
  "name" : "first test",
  "time" : {
    "start" : 1636122920178,
    "stop" : 1636122922190,
    "duration" : 2012
  },
  "status" : "passed",
  "severity" : "normal"
}, {
  "uid" : "93df7c7db9a237e2",
  "name" : "first test",
  "time" : {
    "start" : 1636122921041,
    "stop" : 1636122924442,
    "duration" : 3401
  },
  "status" : "passed",
  "severity" : "normal"
}, {
  "uid" : "37796099c49f82f6",
  "name" : "second test",
  "time" : {
    "start" : 1636122927775,
    "stop" : 1636122929359,
    "duration" : 1584
  },
  "status" : "passed",
  "severity" : "normal"
}, {
  "uid" : "7d3c1e14758c0f0c",
  "name" : "first test",
  "time" : {
    "start" : 1636122923396,
    "stop" : 1636122927988,
    "duration" : 4592
  },
  "status" : "passed",
  "severity" : "normal"
}, {
  "uid" : "ff6d85cd8630674c",
  "name" : "second test",
  "time" : {
    "start" : 1636122924442,
    "stop" : 1636122925741,
    "duration" : 1299
  },
  "status" : "passed",
  "severity" : "normal"
}, {
  "uid" : "e808c5fed7dcecf4",
  "name" : "first test",
  "time" : {
    "start" : 1636122920442,
    "stop" : 1636122922780,
    "duration" : 2338
  },
  "status" : "passed",
  "severity" : "normal"
}, {
  "uid" : "277985f4108de8ce",
  "name" : "second test",
  "time" : {
    "start" : 1636122926099,
    "stop" : 1636122927769,
    "duration" : 1670
  },
  "status" : "passed",
  "severity" : "normal"
}, {
  "uid" : "6240f1970a62c293",
  "name" : "first test",
  "time" : {
    "start" : 1636122926993,
    "stop" : 1636122928933,
    "duration" : 1940
  },
  "status" : "passed",
  "severity" : "normal"
}, {
  "uid" : "ffe1626a58bb7c9d",
  "name" : "first test",
  "time" : {
    "start" : 1636122924205,
    "stop" : 1636122926099,
    "duration" : 1894
  },
  "status" : "passed",
  "severity" : "normal"
}, {
  "uid" : "9b90d46fa98cc046",
  "name" : "second test",
  "time" : {
    "start" : 1636122923725,
    "stop" : 1636122928355,
    "duration" : 4630
  },
  "status" : "passed",
  "severity" : "normal"
}, {
  "uid" : "c0552806f6b3b717",
  "name" : "second test",
  "time" : {
    "start" : 1636122922190,
    "stop" : 1636122923080,
    "duration" : 890
  },
  "status" : "passed",
  "severity" : "normal"
} ]