"Status","Start Time","Stop Time","Duration in ms","Parent Suite","Suite","Sub Suite","Test Class","Test Method","Name","Description"
"passed","Fri Nov 05 17:35:20 MSK 2021","Fri Nov 05 17:35:23 MSK 2021","2527","Chromium","tests\parallel\test3.spec.js","parallelization between @files","","","second test",""
"passed","Fri Nov 05 17:35:20 MSK 2021","Fri Nov 05 17:35:22 MSK 2021","2012","Chromium","tests\parallel\test2.spec.js","parallelization between @files","","","first test",""
"passed","Fri Nov 05 17:35:21 MSK 2021","Fri Nov 05 17:35:24 MSK 2021","3401","Firefox","tests\parallel\test2.spec.js","parallelization between @files","","","first test",""
"passed","Fri Nov 05 17:35:27 MSK 2021","Fri Nov 05 17:35:29 MSK 2021","1584","WebKit","tests\parallel\test3.spec.js","parallelization between @files","","","second test",""
"passed","Fri Nov 05 17:35:23 MSK 2021","Fri Nov 05 17:35:27 MSK 2021","4592","Firefox","tests\parallel\test3.spec.js","parallelization between @files","","","first test",""
"passed","Fri Nov 05 17:35:24 MSK 2021","Fri Nov 05 17:35:25 MSK 2021","1299","Firefox","tests\parallel\test2.spec.js","parallelization between @files","","","second test",""
"passed","Fri Nov 05 17:35:20 MSK 2021","Fri Nov 05 17:35:22 MSK 2021","2338","Chromium","tests\parallel\test3.spec.js","parallelization between @files","","","first test",""
"passed","Fri Nov 05 17:35:26 MSK 2021","Fri Nov 05 17:35:27 MSK 2021","1670","WebKit","tests\parallel\test2.spec.js","parallelization between @files","","","second test",""
"passed","Fri Nov 05 17:35:26 MSK 2021","Fri Nov 05 17:35:28 MSK 2021","1940","WebKit","tests\parallel\test3.spec.js","parallelization between @files","","","first test",""
"passed","Fri Nov 05 17:35:24 MSK 2021","Fri Nov 05 17:35:26 MSK 2021","1894","WebKit","tests\parallel\test2.spec.js","parallelization between @files","","","first test",""
"passed","Fri Nov 05 17:35:23 MSK 2021","Fri Nov 05 17:35:28 MSK 2021","4630","Firefox","tests\parallel\test3.spec.js","parallelization between @files","","","second test",""
"passed","Fri Nov 05 17:35:22 MSK 2021","Fri Nov 05 17:35:23 MSK 2021","890","Chromium","tests\parallel\test2.spec.js","parallelization between @files","","","second test",""
